{
  "total": 4,
  "per_page": 2,
  "current_page": 2,
  "last_page": 2,
  "next_page_url": null,
  "prev_page_url": "\/?page=1",
  "from": 1,
  "to": 2,
  "data": [
    {
      "id": "groupings:faculty:general:facultyViewers",
      "displayId": "Groupings:Faculty:General:FacultyViewers",
      "displayGroup": "Faculty Viewers",
      "description": "Lorem ipsum dolor sit amet, consectetur adipiscing elit. Nullam vitae justo eu est porta tempor. Vestibulum ante ipsum primis in faucibus orci luctus.",
      "status": "active"
    },
    {
      "id": "groupings:faculty:facultyApprovers",
      "displayId": "Groupings:Faculty:FacultyApprovers",
      "displayGroup": "Faculty Approvers",
      "description": "Lorem ipsum dolor sit amet, consectetur adipiscing elit. Nullam vitae justo eu est porta tempor. Vestibulum ante ipsum primis in faucibus orci luctus.",
      "status": "inactive"
    }
  ]
}
